﻿{
  "Group": "Atluz",
  "FriendlyName": "Netbanking, Credit/Debit card, Wallet payment using Razorpay",
  "SystemName": "Atluz.Razorpay",
  "Version": "4.03",
  "SupportedVersions": [ "4.20" ],
  "Author": "Atluz Nop Team",
  "DisplayOrder": 1,
  "FileName": "Nop.Plugin.Atluz.Razorpay.dll",
  "Description": "Razorpay Payment plugin"
}