﻿{
  "Group": "Payment methods",
  "FriendlyName": "Curlec",
  "SystemName": "Payments.Curlec",
  "Version": "1.55",
  "SupportedVersions": [ "4.20" ],
  "Author": "nestorhawk team",
  "DisplayOrder": 1,
  "FileName": "Nop.Plugin.Payments.Curlec.dll",
  "Description": "This plugin allows paying with Curlec"
}