﻿{
  "Group": "API",
  "FriendlyName": "Nestorbird Merchant API",
  "SystemName": "Nestorbird.Plugin.Api",
  "Version": "1.12",
  "SupportedVersions": [ "4.20" ],
  "Author": "Parth S. Patel,",
  "DisplayOrder": 0,
  "FileName": "Nestorbird.Plugin.Api.dll",
  "Description": "This plugin integrates Merchant APIs to use from mobile application"
}